<svg width="1496" height="284" viewBox="0 0 1496 284" fill="none" xmlns="http://www.w3.org/2000/svg">
<path d="M118.231 202.632C118.231 256.877 95.6425 284 50.4646 284C36.6229 284 24.8959 281.499 15.2836 276.498C5.86351 271.497 1.15348 263.61 1.15348 252.838C1.15348 247.452 2.69145 242.931 5.76739 239.276C9.03557 235.622 13.265 233.794 18.4556 233.794C23.6463 233.794 27.3951 235.237 29.702 238.122C27.2028 239.661 25.3765 241.681 24.223 244.182C23.0695 246.875 22.4928 249.375 22.4928 251.684C22.4928 259.186 25.1843 264.764 30.5671 268.419C36.1423 272.266 42.7748 274.19 50.4646 274.19C66.2288 274.19 77.8597 268.227 85.3573 256.3C92.8549 244.374 96.6037 226.581 96.6037 202.921C96.6037 196.573 96.8921 189.648 97.4688 182.146C93.4317 193.88 87.1837 203.017 78.7248 209.557C70.266 216.097 59.8847 219.367 47.5809 219.367C32.778 219.367 21.8199 214.751 14.7068 205.517C7.59373 196.092 3.94105 180.511 3.7488 158.774V102.798C3.7488 89.5247 2.4992 79.1373 0 71.6353C4.22942 68.1728 8.7472 66.4416 13.5534 66.4416C17.3983 66.4416 20.4742 67.5957 22.7812 69.9041C25.2804 72.2124 26.53 75.3863 26.53 79.4258L26.8183 155.889C26.8183 173.586 28.8369 186.474 32.8741 194.553C37.1035 202.44 44.0244 206.383 53.6367 206.383C65.3637 206.383 75.2644 200.805 83.3387 189.648C91.4131 178.299 95.4503 160.986 95.4503 137.711C95.4503 113.473 95.258 97.7 94.8735 90.3903C94.489 83.0807 93.3355 76.829 91.4131 71.6353C95.4503 68.1728 99.8719 66.4416 104.678 66.4416C108.523 66.4416 111.695 67.6919 114.194 70.1926C116.693 72.6933 117.943 76.0595 117.943 80.2915L118.231 202.632Z" fill="#785776"/>
<path d="M320.566 184.548C320.566 188.258 320.956 191.383 321.737 193.922C322.713 196.46 323.884 198.901 325.25 201.245C326.616 203.393 327.299 204.858 327.299 205.639C327.299 207.787 326.226 209.838 324.079 211.791C321.932 213.743 319.883 214.72 317.931 214.72C314.027 214.72 310.514 212.279 307.391 207.397C304.464 202.514 303 197.827 303 193.336V189.235C298.901 198.218 292.558 205.053 283.971 209.74C275.578 214.427 265.917 216.77 254.987 216.77C238.397 216.77 226.004 211.107 217.807 199.78C209.609 188.454 205.511 171.952 205.511 150.275V77.9202C205.511 75.3814 206.487 73.3309 208.438 71.7686C210.585 70.2063 213.22 69.4251 216.343 69.4251C219.661 69.4251 222.393 70.2063 224.54 71.7686C226.687 73.3309 227.761 75.3814 227.761 77.9202V150.86C227.761 167.265 230.103 179.275 234.787 186.891C239.471 194.508 246.985 198.316 257.329 198.316C283.678 198.316 296.852 174.393 296.852 126.547V77.6272C296.852 74.5026 297.828 72.0615 299.78 70.3039C301.731 68.5463 304.366 67.6675 307.684 67.6675C311.197 67.6675 314.027 68.5463 316.174 70.3039C318.321 72.0615 319.395 74.5026 319.395 77.6272L320.566 184.548Z" fill="#785776"/>
<path d="M468.117 0C495.246 0 508.811 15.4278 508.811 46.2834C508.811 53.3138 505.2 56.829 497.979 56.829C490.367 56.829 486.561 53.5091 486.561 46.8693C486.561 38.0813 485.39 31.2462 483.048 26.364C480.706 21.4817 475.826 19.0406 468.41 19.0406C460.017 19.0406 454.162 22.5558 450.844 29.5862C447.721 36.6166 446.16 47.2598 446.16 61.5159C446.16 76.5532 446.258 88.7587 446.453 98.1325H469.581C472.313 98.1325 474.46 99.0113 476.022 100.769C477.583 102.331 478.364 104.675 478.364 107.799C478.364 113.072 475.436 115.806 469.581 116.001L446.746 116.587C447.136 153.302 447.331 183.376 447.331 206.811C447.331 210.326 446.258 212.865 444.111 214.427C442.159 215.989 439.622 216.77 436.499 216.77C432.986 216.77 430.351 215.892 428.594 214.134C426.838 212.376 425.96 210.033 425.96 207.104C425.96 189.137 425.569 164.531 424.788 133.285L424.496 117.173L406.93 117.466C403.417 117.466 400.88 116.685 399.318 115.123C397.757 113.56 396.976 111.217 396.976 108.092C396.976 105.358 397.659 103.21 399.026 101.648C400.392 100.085 402.929 99.2066 406.637 99.0114L424.203 98.7184C423.813 79.5801 423.617 67.0816 423.617 61.223C423.617 42.4753 427.228 27.6333 434.45 16.6972C441.866 5.56572 453.089 0 468.117 0Z" fill="#785776"/>
<path d="M601.323 50.9703C596.249 50.9703 591.955 49.3104 588.442 45.9905C584.929 42.4753 583.172 38.0813 583.172 32.8085C583.172 27.5357 584.929 23.2393 588.442 19.9194C591.955 16.4042 596.444 14.6466 601.909 14.6466C607.178 14.6466 611.472 16.3066 614.79 19.6265C618.303 22.9464 620.06 27.2428 620.06 32.5156C620.06 37.7883 618.206 42.1823 614.497 45.6975C610.984 49.2127 606.593 50.9703 601.323 50.9703ZM596.932 215.013C593.419 215.013 590.589 214.134 588.442 212.376C586.49 210.619 585.514 208.275 585.514 205.346L588.442 80.8495C588.442 77.5296 589.418 74.9908 591.369 73.2332C593.516 71.4756 596.346 70.5968 599.859 70.5968C603.373 70.5968 606.105 71.4756 608.057 73.2332C610.204 74.9908 611.277 77.6272 611.277 81.1424L608.349 205.346C608.154 208.471 606.983 210.912 604.836 212.669C602.885 214.232 600.25 215.013 596.932 215.013Z" fill="#785776"/>
<path d="M862.466 67.0816C879.836 67.0816 892.035 72.8427 899.061 84.3647C906.087 95.8867 909.6 111.998 909.6 132.699C909.6 165.507 909.503 190.406 909.307 207.397C909.307 210.131 908.332 212.376 906.38 214.134C904.623 215.892 902.086 216.77 898.768 216.77C895.255 216.77 892.523 215.892 890.571 214.134C888.814 212.376 887.936 209.935 887.936 206.811V134.456C887.936 116.88 885.984 104.186 882.081 96.375C878.372 88.5634 871.346 84.6576 861.002 84.6576C851.243 84.6576 844.022 90.1257 839.338 101.062C834.653 111.998 832.214 124.887 832.019 139.729V206.811C832.019 213.06 828.408 216.185 821.186 216.185C813.575 216.185 809.769 212.865 809.769 206.225L810.062 153.204V139.729C809.866 125.864 807.036 113.463 801.571 102.527C796.302 91.3951 788.983 85.8294 779.614 85.8294C772.393 85.8294 766.343 89.4422 761.463 96.6679C756.779 103.698 752.876 115.025 749.753 130.648C747.996 140.022 747.118 153.595 747.118 171.366V207.689C747.118 210.424 746.045 212.572 743.898 214.134C741.751 215.501 739.213 216.185 736.286 216.185C732.968 215.989 730.333 215.208 728.381 213.841C726.625 212.279 725.746 210.131 725.746 207.397C725.746 187.672 725.551 156.133 725.161 112.779V101.648C724.966 96.7655 724.38 93.2503 723.404 91.1022C722.429 88.954 721.062 87.0011 719.306 85.2435C718.915 84.8529 718.232 84.267 717.256 83.4859C716.476 82.7047 716.085 81.7283 716.085 80.5566C716.085 77.6272 717.159 75.1861 719.306 73.2332C721.453 71.2804 723.892 70.3039 726.625 70.3039C727.991 70.3039 729.552 71.0851 731.309 72.6474C733.261 74.0144 734.92 75.6744 736.286 77.6272C738.433 80.5566 739.897 83.4859 740.677 86.4152C741.653 89.3446 742.141 92.8598 742.141 96.9608V101.941C745.459 90.8092 750.436 82.4118 757.072 76.7484C763.708 70.8898 771.612 67.9605 780.786 67.9605C800.888 67.9605 814.063 79.2872 820.308 101.941C823.236 90.6139 828.31 82.0212 835.532 76.1626C842.753 70.1086 851.731 67.0816 862.466 67.0816Z" fill="#785776"/>
<path d="M1025.83 50.9703C1020.75 50.9703 1016.46 49.3104 1012.94 45.9905C1009.43 42.4753 1007.68 38.0813 1007.68 32.8085C1007.68 27.5357 1009.43 23.2393 1012.94 19.9194C1016.46 16.4042 1020.95 14.6466 1026.41 14.6466C1031.68 14.6466 1035.98 16.3066 1039.29 19.6265C1042.81 22.9464 1044.56 27.2428 1044.56 32.5156C1044.56 37.7883 1042.71 42.1823 1039 45.6975C1035.49 49.2127 1031.1 50.9703 1025.83 50.9703ZM1021.43 215.013C1017.92 215.013 1015.09 214.134 1012.94 212.376C1010.99 210.619 1010.02 208.275 1010.02 205.346L1012.94 80.8495C1012.94 77.5296 1013.92 74.9908 1015.87 73.2332C1018.02 71.4756 1020.85 70.5968 1024.36 70.5968C1027.88 70.5968 1030.61 71.4756 1032.56 73.2332C1034.71 74.9908 1035.78 77.6272 1035.78 81.1424L1032.85 205.346C1032.66 208.471 1031.49 210.912 1029.34 212.669C1027.39 214.232 1024.75 215.013 1021.43 215.013Z" fill="#785776"/>
<path d="M1279.94 197.73C1282.67 198.12 1284.72 198.901 1286.09 200.073C1287.46 201.245 1288.14 203.393 1288.14 206.518C1288.14 209.447 1287.36 211.791 1285.8 213.548C1284.43 215.306 1282.48 216.185 1279.94 216.185C1271.94 216.185 1265.99 214.915 1262.08 212.376C1258.38 209.838 1255.16 205.053 1252.42 198.023C1243.64 212.279 1228.03 219.407 1205.58 219.407C1189.77 219.407 1176.99 215.892 1167.23 208.861C1157.47 201.831 1150.44 192.945 1146.15 182.204C1142.05 171.268 1140 159.746 1140 147.638C1140 134.554 1142.64 122.251 1147.91 110.729C1153.18 99.2066 1160.89 89.9304 1171.04 82.9C1181.38 75.8696 1193.68 72.3544 1207.92 72.3544C1217.68 72.3544 1226.17 74.3073 1233.39 78.2131C1240.61 82.1189 1246.28 87.587 1250.37 94.6173L1251.54 84.9506C1251.94 77.7249 1255.25 74.112 1261.5 74.112C1265.4 74.112 1268.33 75.0885 1270.28 77.0414C1272.43 78.799 1273.31 80.9471 1272.92 83.4859L1272.04 90.8092C1270.67 99.0113 1269.7 107.506 1269.11 116.294C1268.52 123.715 1268.23 133.675 1268.23 146.174V166.386C1268.23 174.783 1268.43 181.033 1268.82 185.134C1269.4 189.039 1270.48 192.066 1272.04 194.215C1273.6 196.363 1276.23 197.534 1279.94 197.73ZM1245.98 166.093C1246.18 156.914 1246.28 145.099 1246.28 130.648C1246.28 121.079 1244.23 113.365 1240.13 107.506C1236.03 101.452 1231.05 97.1561 1225.2 94.6173C1219.34 92.0786 1213.78 90.8092 1208.51 90.8092C1198.16 90.8092 1189.48 93.7386 1182.45 99.5972C1175.62 105.456 1170.55 112.779 1167.23 121.567C1164.11 130.355 1162.55 139.046 1162.55 147.638C1162.55 161.308 1165.86 173.612 1172.5 184.548C1179.33 195.289 1190.46 200.659 1205.87 200.659C1217.39 200.659 1226.86 197.73 1234.27 191.871C1241.88 185.817 1245.79 177.224 1245.98 166.093Z" fill="#785776"/>
<path d="M1471.99 94.6174C1466.14 94.6174 1460.28 93.5433 1454.43 91.3951C1451.7 96.2773 1449.74 101.16 1448.57 106.042C1457.16 108.58 1464.09 112.584 1469.36 118.052C1474.82 123.52 1477.56 129.183 1477.56 135.042C1477.56 139.534 1475.9 143.244 1472.58 146.174C1469.46 149.103 1465.55 150.568 1460.87 150.568C1453.84 150.568 1448.18 147.15 1443.89 140.315C1439.59 133.48 1437.45 125.766 1437.45 117.173C1437.45 115.22 1437.55 113.756 1437.74 112.779C1434.62 112.389 1432.37 112.193 1431.01 112.193C1428.47 112.193 1426.52 112.291 1425.15 112.486V113.365C1425.15 123.325 1422.71 132.21 1417.83 140.022C1412.95 147.638 1406.51 151.446 1398.51 151.446C1394.22 151.446 1390.41 150.079 1387.09 147.345C1383.97 144.611 1382.41 140.901 1382.41 136.214C1382.41 129.574 1385.43 123.422 1391.48 117.759C1397.73 111.9 1405.54 107.799 1414.91 105.456C1414.12 100.964 1412.56 95.9844 1410.22 90.5163C1404.17 92.6645 1398.12 93.7386 1392.07 93.7386C1384.65 93.7386 1378.51 92.1762 1373.63 89.0516C1368.75 85.7317 1366.31 81.1424 1366.31 75.2838C1366.31 70.7921 1367.67 66.984 1370.41 63.8594C1373.33 60.5395 1377.63 58.8795 1383.29 58.8795C1389.34 58.8795 1395.1 60.7348 1400.56 64.4452C1406.02 68.1557 1410.71 73.1356 1414.61 79.3848C1418.91 76.8461 1422.71 74.112 1426.03 71.1827C1422.13 66.6911 1419.1 61.9065 1416.95 56.829C1414.81 51.7515 1413.73 46.7716 1413.73 41.8894C1413.73 36.226 1415.2 31.832 1418.13 28.7074C1421.25 25.5828 1425.74 24.0205 1431.59 24.0205C1437.64 24.0205 1442.13 25.6805 1445.06 29.0004C1447.99 32.3203 1449.45 36.8119 1449.45 42.4753C1449.45 52.2397 1445.74 61.6136 1438.33 70.5968C1441.84 74.112 1445.74 77.2367 1450.04 79.9707C1454.33 73.7215 1459.11 68.7416 1464.38 65.0311C1469.65 61.3206 1474.92 59.4654 1480.19 59.4654C1485.07 59.4654 1488.88 61.0277 1491.61 64.1523C1494.54 67.0816 1496 70.9874 1496 75.8696C1496 81.9236 1493.76 86.6105 1489.27 89.9304C1484.97 93.055 1479.22 94.6174 1471.99 94.6174ZM1432.47 32.5156C1427.2 32.5156 1424.57 35.5425 1424.57 41.5965C1424.57 49.408 1427.3 56.9266 1432.76 64.1523C1438.23 56.7313 1440.96 49.6033 1440.96 42.7682C1440.96 39.6436 1440.18 37.2025 1438.62 35.4449C1437.25 33.492 1435.2 32.5156 1432.47 32.5156ZM1392.36 85.5364C1396.85 85.5364 1401.44 84.7553 1406.12 83.193C1403 78.506 1399.58 74.7955 1395.88 72.0615C1392.36 69.1322 1388.75 67.6675 1385.04 67.6675C1382.7 67.6675 1380.75 68.4487 1379.19 70.011C1377.82 71.378 1377.14 73.2332 1377.14 75.5767C1377.14 78.8966 1378.51 81.4354 1381.24 83.193C1384.17 84.7553 1387.87 85.5364 1392.36 85.5364ZM1479.61 68.5463C1476.09 68.5463 1472.48 70.011 1468.77 72.9403C1465.26 75.6744 1461.94 79.3848 1458.82 84.0718C1463.5 85.6341 1467.99 86.4152 1472.29 86.4152C1476.78 86.4152 1480.39 85.6341 1483.12 84.0718C1485.85 82.3142 1487.22 79.7754 1487.22 76.4555C1487.22 74.112 1486.53 72.2568 1485.17 70.8898C1483.8 69.3275 1481.95 68.5463 1479.61 68.5463ZM1439.2 103.991C1440.96 97.5467 1443.11 91.981 1445.65 87.294C1440.96 84.7553 1436.37 81.4354 1431.89 77.3343C1427.4 81.0448 1423 84.1694 1418.71 86.7082C1421.05 91.5904 1422.91 97.2538 1424.27 103.698C1425.64 103.503 1427.79 103.405 1430.71 103.405C1432.86 103.405 1435.69 103.601 1439.2 103.991ZM1399.97 142.951C1404.27 142.951 1407.88 140.022 1410.81 134.163C1413.73 128.305 1415.3 121.762 1415.49 114.537C1408.85 116.49 1403.39 119.517 1399.1 123.618C1395 127.523 1392.95 131.527 1392.95 135.628C1392.95 137.776 1393.63 139.534 1395 140.901C1396.36 142.268 1398.02 142.951 1399.97 142.951ZM1468.77 134.749C1468.77 131.039 1466.72 127.328 1462.63 123.618C1458.53 119.712 1453.35 116.783 1447.11 114.83V117.173C1447.11 123.032 1448.28 128.598 1450.62 133.87C1452.96 139.143 1456.38 141.78 1460.87 141.78C1463.02 141.78 1464.87 141.096 1466.43 139.729C1467.99 138.362 1468.77 136.702 1468.77 134.749Z" fill="#785776"/>
</svg>
