<svg width="211" height="40" viewBox="0 0 211 40" fill="none" xmlns="http://www.w3.org/2000/svg">
<path d="M16.6757 28.5397C16.6757 36.1799 13.4897 40 7.11767 40C5.1654 40 3.51138 39.6478 2.15564 38.9434C0.827006 38.239 0.16269 37.1282 0.16269 35.611C0.16269 34.8524 0.379609 34.2157 0.813448 33.7009C1.2744 33.1861 1.87093 32.9288 2.60303 32.9288C3.33514 32.9288 3.86388 33.132 4.18926 33.5384C3.83676 33.7551 3.57917 34.0396 3.41648 34.3918C3.25379 34.7711 3.17245 35.1233 3.17245 35.4484C3.17245 36.505 3.55206 37.2907 4.31128 37.8055C5.09761 38.3473 6.03307 38.6183 7.11767 38.6183C9.3411 38.6183 10.9816 37.7784 12.039 36.0986C13.0965 34.4189 13.6253 31.9128 13.6253 28.5804C13.6253 27.6863 13.6659 26.711 13.7473 25.6543C13.1779 27.307 12.2966 28.5939 11.1036 29.5151C9.91051 30.4362 8.4463 30.8968 6.71095 30.8968C4.6231 30.8968 3.07755 30.2466 2.07429 28.9461C1.07104 27.6186 0.555856 25.424 0.528741 22.3625V14.4785C0.528741 12.6091 0.352494 11.1461 0 10.0895C0.596529 9.60181 1.23373 9.35797 1.9116 9.35797C2.4539 9.35797 2.88774 9.52053 3.21312 9.84564C3.56561 10.1708 3.74186 10.6178 3.74186 11.1867L3.78253 21.9562C3.78253 24.4487 4.06724 26.2639 4.63665 27.4018C5.23318 28.5126 6.20932 29.068 7.56507 29.068C9.21908 29.068 10.6155 28.2823 11.7543 26.711C12.8932 25.1125 13.4626 22.6741 13.4626 19.3959C13.4626 15.9822 13.4355 13.7606 13.3812 12.731C13.327 11.7015 13.1643 10.821 12.8932 10.0895C13.4626 9.60181 14.0862 9.35797 14.7641 9.35797C15.3064 9.35797 15.7538 9.53407 16.1063 9.88628C16.4588 10.2385 16.635 10.7126 16.635 11.3087L16.6757 28.5397Z" fill="#cf88a4"/>
<path d="M45.2135 25.9926C45.2135 26.5153 45.2685 26.9553 45.3786 27.3129C45.5163 27.6705 45.6814 28.0143 45.8741 28.3444C46.0668 28.6469 46.1632 28.8532 46.1632 28.9632C46.1632 29.2658 46.0118 29.5546 45.709 29.8297C45.4062 30.1047 45.1171 30.2422 44.8418 30.2422C44.2913 30.2422 43.7958 29.8984 43.3553 29.2108C42.9424 28.5231 42.736 27.863 42.736 27.2304V26.6528C42.1579 27.918 41.2632 28.8807 40.052 29.5408C38.8683 30.201 37.5057 30.531 35.9641 30.531C33.6242 30.531 31.8762 29.7334 30.7201 28.1381C29.5639 26.5428 28.9858 24.2185 28.9858 21.1654V10.9747C28.9858 10.6171 29.1234 10.3283 29.3987 10.1083C29.7015 9.88821 30.0732 9.77819 30.5136 9.77819C30.9816 9.77819 31.367 9.88821 31.6698 10.1083C31.9726 10.3283 32.124 10.6171 32.124 10.9747V21.248C32.124 23.5584 32.4543 25.25 33.115 26.3227C33.7756 27.3954 34.8355 27.9318 36.2944 27.9318C40.0107 27.9318 41.8688 24.5624 41.8688 17.8235V10.9334C41.8688 10.4933 42.0065 10.1495 42.2818 9.90196C42.557 9.65441 42.9287 9.53064 43.3966 9.53064C43.8921 9.53064 44.2913 9.65441 44.5941 9.90196C44.8969 10.1495 45.0483 10.4933 45.0483 10.9334L45.2135 25.9926Z" fill="#cf88a4"/>
<path d="M66.0245 0C69.8509 0 71.7641 2.17293 71.7641 6.51879C71.7641 7.50899 71.2548 8.00408 70.2363 8.00408C69.1627 8.00408 68.6259 7.53649 68.6259 6.60131C68.6259 5.36356 68.4607 4.40087 68.1304 3.71323C67.8001 3.0256 67.1119 2.68178 66.0658 2.68178C64.8821 2.68178 64.0563 3.17688 63.5883 4.16707C63.1479 5.15727 62.9276 6.65632 62.9276 8.66421C62.9276 10.7821 62.9414 12.5012 62.9689 13.8215H66.231C66.6164 13.8215 66.9192 13.9453 67.1394 14.1928C67.3596 14.4129 67.4697 14.7429 67.4697 15.183C67.4697 15.9257 67.0568 16.3107 66.231 16.3382L63.0102 16.4208C63.0653 21.5918 63.0928 25.8276 63.0928 29.1283C63.0928 29.6234 62.9414 29.9809 62.6386 30.201C62.3633 30.421 62.0055 30.531 61.565 30.531C61.0695 30.531 60.6979 30.4073 60.4501 30.1597C60.2024 29.9122 60.0785 29.5821 60.0785 29.1695C60.0785 26.639 60.0235 23.1733 59.9133 18.7725L59.8721 16.5033L57.3945 16.5445C56.899 16.5445 56.5412 16.4345 56.321 16.2145C56.1007 15.9944 55.9906 15.6644 55.9906 15.2243C55.9906 14.8392 56.087 14.5366 56.2797 14.3166C56.4724 14.0965 56.8302 13.9728 57.3533 13.9453L59.8308 13.904C59.7757 11.2085 59.7482 9.44812 59.7482 8.62296C59.7482 5.98243 60.2574 3.89202 61.276 2.35171C62.322 0.783905 63.9049 0 66.0245 0Z" fill="#cf88a4"/>
<path d="M84.8123 7.17892C84.0966 7.17892 83.491 6.94512 82.9955 6.47753C82.5 5.98243 82.2522 5.36356 82.2522 4.62091C82.2522 3.87827 82.5 3.27315 82.9955 2.80555C83.491 2.31046 84.1241 2.06291 84.8949 2.06291C85.6381 2.06291 86.2437 2.2967 86.7117 2.7643C87.2072 3.23189 87.455 3.83701 87.455 4.57966C87.455 5.3223 87.1935 5.94117 86.6704 6.43627C86.1749 6.93137 85.5555 7.17892 84.8123 7.17892ZM84.1929 30.2835C83.6974 30.2835 83.2983 30.1597 82.9955 29.9122C82.7202 29.6646 82.5825 29.3346 82.5825 28.922L82.9955 11.3873C82.9955 10.9197 83.1331 10.5621 83.4084 10.3145C83.7112 10.067 84.1103 9.94322 84.6058 9.94322C85.1013 9.94322 85.4867 10.067 85.762 10.3145C86.0648 10.5621 86.2162 10.9334 86.2162 11.4285L85.8033 28.922C85.7758 29.3621 85.6106 29.7059 85.3078 29.9534C85.0325 30.1735 84.6609 30.2835 84.1929 30.2835Z" fill="#cf88a4"/>
<path d="M121.645 9.44812C124.095 9.44812 125.815 10.2595 126.806 11.8824C127.797 13.5052 128.293 15.7744 128.293 18.69C128.293 23.3109 128.279 26.8178 128.251 29.2108C128.251 29.5959 128.114 29.9122 127.838 30.1597C127.591 30.4073 127.233 30.531 126.765 30.531C126.269 30.531 125.884 30.4073 125.609 30.1597C125.361 29.9122 125.237 29.5684 125.237 29.1283V18.9375C125.237 16.462 124.962 14.6742 124.411 13.5739C123.888 12.4737 122.897 11.9236 121.438 11.9236C120.062 11.9236 119.043 12.6938 118.383 14.2341C117.722 15.7744 117.378 17.5897 117.35 19.6801V29.1283C117.35 30.0084 116.841 30.4485 115.822 30.4485C114.749 30.4485 114.212 29.9809 114.212 29.0458L114.253 21.578V19.6801C114.226 17.7273 113.827 15.9807 113.056 14.4404C112.313 12.8725 111.28 12.0886 109.959 12.0886C108.94 12.0886 108.087 12.5975 107.399 13.6152C106.738 14.6054 106.188 16.2007 105.747 18.4011C105.499 19.7214 105.376 21.633 105.376 24.136V29.252C105.376 29.6371 105.224 29.9397 104.921 30.1597C104.619 30.3523 104.261 30.4485 103.848 30.4485C103.38 30.421 103.008 30.311 102.733 30.1185C102.485 29.8984 102.361 29.5959 102.361 29.2108C102.361 26.4327 102.334 21.9906 102.279 15.8844V14.3166C102.251 13.6289 102.169 13.1338 102.031 12.8313C101.893 12.5287 101.701 12.2537 101.453 12.0061C101.398 11.9511 101.301 11.8686 101.164 11.7586C101.054 11.6486 100.999 11.511 100.999 11.346C100.999 10.9334 101.15 10.5896 101.453 10.3145C101.756 10.0395 102.1 9.90196 102.485 9.90196C102.678 9.90196 102.898 10.012 103.146 10.232C103.421 10.4246 103.655 10.6584 103.848 10.9334C104.151 11.346 104.357 11.7586 104.467 12.1712C104.605 12.5837 104.674 13.0788 104.674 13.6565V14.3578C105.142 12.79 105.844 11.6073 106.78 10.8096C107.715 9.98448 108.83 9.57189 110.124 9.57189C112.96 9.57189 114.818 11.1672 115.699 14.3578C116.111 12.7625 116.827 11.5523 117.846 10.7271C118.864 9.87445 120.131 9.44812 121.645 9.44812Z" fill="#cf88a4"/>
<path d="M144.685 7.17892C143.97 7.17892 143.364 6.94512 142.869 6.47753C142.373 5.98243 142.125 5.36356 142.125 4.62091C142.125 3.87827 142.373 3.27315 142.869 2.80555C143.364 2.31046 143.997 2.06291 144.768 2.06291C145.511 2.06291 146.117 2.2967 146.585 2.7643C147.08 3.23189 147.328 3.83701 147.328 4.57966C147.328 5.3223 147.067 5.94117 146.544 6.43627C146.048 6.93137 145.429 7.17892 144.685 7.17892ZM144.066 30.2835C143.571 30.2835 143.171 30.1597 142.869 29.9122C142.593 29.6646 142.456 29.3346 142.456 28.922L142.869 11.3873C142.869 10.9197 143.006 10.5621 143.281 10.3145C143.584 10.067 143.983 9.94322 144.479 9.94322C144.974 9.94322 145.36 10.067 145.635 10.3145C145.938 10.5621 146.089 10.9334 146.089 11.4285L145.676 28.922C145.649 29.3621 145.484 29.7059 145.181 29.9534C144.906 30.1735 144.534 30.2835 144.066 30.2835Z" fill="#cf88a4"/>
<path d="M180.527 27.8493C180.912 27.9043 181.201 28.0143 181.394 28.1793C181.586 28.3444 181.683 28.6469 181.683 29.087C181.683 29.4996 181.573 29.8297 181.352 30.0772C181.16 30.3248 180.885 30.4485 180.527 30.4485C179.398 30.4485 178.558 30.2697 178.008 29.9122C177.485 29.5546 177.031 28.8807 176.645 27.8905C175.406 29.8984 173.204 30.9024 170.039 30.9024C167.809 30.9024 166.006 30.4073 164.629 29.4171C163.253 28.4269 162.262 27.1754 161.656 25.6626C161.078 24.1223 160.789 22.4995 160.789 20.7941C160.789 18.9513 161.161 17.2184 161.904 15.5956C162.647 13.9728 163.735 12.6663 165.166 11.6761C166.625 10.6859 168.359 10.1908 170.369 10.1908C171.745 10.1908 172.943 10.4658 173.961 11.0159C174.98 11.566 175.778 12.3362 176.356 13.3264L176.521 11.9649C176.576 10.9472 177.044 10.4383 177.925 10.4383C178.476 10.4383 178.889 10.5758 179.164 10.8509C179.467 11.0984 179.591 11.401 179.536 11.7586L179.412 12.79C179.219 13.9453 179.081 15.1417 178.999 16.3795C178.916 17.4247 178.875 18.8275 178.875 20.5878V23.4346C178.875 24.6174 178.903 25.4975 178.958 26.0752C179.04 26.6253 179.192 27.0516 179.412 27.3542C179.632 27.6567 180.004 27.8218 180.527 27.8493ZM175.737 23.3934C175.764 22.1006 175.778 20.4365 175.778 18.4011C175.778 17.0534 175.489 15.9669 174.911 15.1417C174.333 14.2891 173.631 13.684 172.805 13.3264C171.979 12.9688 171.195 12.79 170.451 12.79C168.992 12.79 167.767 13.2026 166.776 14.0278C165.813 14.8529 165.097 15.8844 164.629 17.1221C164.189 18.3599 163.969 19.5839 163.969 20.7941C163.969 22.7195 164.437 24.4523 165.373 25.9926C166.336 27.5054 167.905 28.2618 170.08 28.2618C171.704 28.2618 173.039 27.8493 174.085 27.0241C175.159 26.1714 175.709 24.9612 175.737 23.3934Z" fill="#cf88a4"/>
<path d="M207.614 13.3264C206.788 13.3264 205.962 13.1751 205.137 12.8725C204.751 13.5602 204.476 14.2478 204.311 14.9355C205.522 15.293 206.499 15.8569 207.242 16.627C208.013 17.3972 208.399 18.1949 208.399 19.02C208.399 19.6526 208.165 20.1752 207.697 20.5878C207.256 21.0004 206.706 21.2067 206.045 21.2067C205.054 21.2067 204.256 20.7254 203.65 19.7627C203.044 18.8 202.742 17.7135 202.742 16.5033C202.742 16.2282 202.755 16.0219 202.783 15.8844C202.342 15.8294 202.026 15.8019 201.833 15.8019C201.475 15.8019 201.2 15.8156 201.007 15.8431V15.9669C201.007 17.3697 200.663 18.6212 199.975 19.7214C199.287 20.7941 198.378 21.3305 197.25 21.3305C196.644 21.3305 196.107 21.1379 195.639 20.7529C195.199 20.3678 194.979 19.8452 194.979 19.185C194.979 18.2499 195.405 17.3834 196.259 16.5858C197.14 15.7606 198.241 15.183 199.562 14.8529C199.452 14.2203 199.232 13.5189 198.901 12.7488C198.048 13.0513 197.195 13.2026 196.341 13.2026C195.295 13.2026 194.428 12.9826 193.74 12.5425C193.052 12.0749 192.708 11.4285 192.708 10.6033C192.708 9.97072 192.9 9.43437 193.286 8.99428C193.699 8.52669 194.304 8.29289 195.103 8.29289C195.956 8.29289 196.768 8.55419 197.539 9.0768C198.31 9.5994 198.97 10.3008 199.521 11.181C200.126 10.8234 200.663 10.4383 201.131 10.0257C200.581 9.39311 200.154 8.71922 199.851 8.00408C199.548 7.28894 199.397 6.58755 199.397 5.89992C199.397 5.10226 199.603 4.48339 200.016 4.0433C200.457 3.60321 201.09 3.38317 201.916 3.38317C202.769 3.38317 203.402 3.61697 203.815 4.08456C204.228 4.55215 204.435 5.18478 204.435 5.98243C204.435 7.35771 203.912 8.67797 202.866 9.94322C203.361 10.4383 203.912 10.8784 204.517 11.2635C205.123 10.3833 205.797 9.68192 206.54 9.15931C207.284 8.63671 208.027 8.37541 208.77 8.37541C209.458 8.37541 209.995 8.59545 210.381 9.03554C210.794 9.44812 211 9.99823 211 10.6859C211 11.5385 210.683 12.1987 210.05 12.6663C209.445 13.1063 208.633 13.3264 207.614 13.3264ZM202.04 4.57966C201.296 4.57966 200.925 5.00599 200.925 5.85866C200.925 6.95888 201.31 8.01784 202.081 9.03554C202.852 7.99033 203.237 6.98638 203.237 6.02369C203.237 5.5836 203.127 5.23979 202.907 4.99224C202.714 4.71718 202.425 4.57966 202.04 4.57966ZM196.383 12.0474C197.016 12.0474 197.663 11.9374 198.323 11.7173C197.883 11.0572 197.401 10.5346 196.878 10.1495C196.383 9.73693 195.873 9.53064 195.35 9.53064C195.02 9.53064 194.745 9.64066 194.525 9.8607C194.332 10.0532 194.236 10.3145 194.236 10.6446C194.236 11.1122 194.428 11.4698 194.814 11.7173C195.227 11.9374 195.75 12.0474 196.383 12.0474ZM208.688 9.65441C208.192 9.65441 207.683 9.8607 207.16 10.2733C206.664 10.6584 206.196 11.181 205.756 11.8411C206.417 12.0611 207.05 12.1712 207.655 12.1712C208.288 12.1712 208.798 12.0611 209.183 11.8411C209.569 11.5935 209.761 11.236 209.761 10.7684C209.761 10.4383 209.665 10.177 209.472 9.98448C209.28 9.76443 209.018 9.65441 208.688 9.65441ZM202.989 14.6466C203.237 13.739 203.54 12.9551 203.898 12.2949C203.237 11.9374 202.59 11.4698 201.957 10.8922C201.324 11.4148 200.705 11.8548 200.099 12.2124C200.429 12.9001 200.691 13.6977 200.884 14.6054C201.076 14.5779 201.379 14.5641 201.792 14.5641C202.095 14.5641 202.494 14.5916 202.989 14.6466ZM197.456 20.134C198.062 20.134 198.571 19.7214 198.984 18.8962C199.397 18.0711 199.617 17.1496 199.645 16.1319C198.709 16.407 197.938 16.8333 197.332 17.4109C196.754 17.9611 196.465 18.5249 196.465 19.1025C196.465 19.4051 196.562 19.6526 196.754 19.8452C196.947 20.0377 197.181 20.134 197.456 20.134ZM207.16 18.9788C207.16 18.4562 206.871 17.9336 206.293 17.4109C205.715 16.8608 204.985 16.4483 204.104 16.1732V16.5033C204.104 17.3284 204.269 18.1123 204.6 18.855C204.93 19.5976 205.412 19.969 206.045 19.969C206.348 19.969 206.609 19.8727 206.83 19.6801C207.05 19.4876 207.16 19.2538 207.16 18.9788Z" fill="#cf88a4"/>
</svg>
