<svg width="35" height="35" viewBox="0 0 35 35" fill="none" xmlns="http://www.w3.org/2000/svg">
<path d="M1 1H34V34" stroke="#83B2CD" stroke-width="2" stroke-linecap="round" stroke-linejoin="round"/>
</svg>
