<svg width="2077" height="433" viewBox="0 0 2077 433" fill="none" xmlns="http://www.w3.org/2000/svg">
<path d="M2 432C124.667 268.833 415.9 136.5 599.5 136.5C829 136.5 1055 248 1357.5 248C1599.5 248 1916.83 54.6667 2076.5 2" stroke="#56A2FB" stroke-width="3"/>
</svg>
